DDS Analytics
…
# Most important variables of attrition
attrition_variables <- DDSA %>%
  tibble::as_tibble() %>%
  select(Attrition, OverTime,Age, MonthlyIncome) %>%
  rowid_to_column(var = "Case")
attrition_variables

## # A tibble: 1,470 x 5
##     Case Attrition OverTime   Age MonthlyIncome
##    <int> <fct>     <fct>    <dbl>         <dbl>
##  1     1 Yes       Yes        41.         5993.
##  2     2 No        No         49.         5130.
##  3     3 Yes       Yes        37.         2090.
##  4     4 No        Yes        33.         2909.
##  5     5 No        No         27.         3468.
##  6     6 No        No         32.         3068.
##  7     7 No        Yes        59.         2670.
##  8     8 No        No         30.         2693.
##  9     9 No        No         38.         9526.
## 10    10 No        No         36.         5237.
## # ... with 1,460 more rows
